ip_cores/ADC_LTC2311_3.0/test_bench/.Xil/Vivado-13336-ws-wendt/hw_ila_data_8/zip_work/waveform.vcd
$date
        2021-Jun-07 17:38:53
$end
$version
        Vivado v2020.1 (64-bit)
$end
$timescale
        1ps
$end
$scope module dut $end
$var reg 32 " zusys_i/ADC_LTC2311/U0/S_ADC_MASTER_SI_FINISH [31:0] $end
$var reg 144 B zusys_i/ADC_LTC2311/U0/SI_VALUE [143:0] $end
$var reg 1 t" zusys_i/ADC_LTC2311/U0/TRIGGER_CNV $end
$var reg 8 u" zusys_i/ADC_LTC2311/U0/S_PRE_DELAY [7:0] $end
$var reg 32 }" zusys_i/ADC_LTC2311/U0/S_ADC_MASTER_BUSY [31:0] $end
$var reg 128 ?# zusys_i/ADC_LTC2311/U0/RAW_VALUE [127:0] $end
$var reg 32 a$ zusys_i/ADC_LTC2311/U0/S_ADC_MASTER_FINISH [31:0] $end
$var reg 128 #% \zusys_i/ADC_LTC2311/U0/GEN_ADC_CONT[0].inst_adc/S_SPI_RAW_VALUE [127:0] $end
$var reg 16 E& \zusys_i/ADC_LTC2311/U0/GEN_ADC_CONT[0].inst_adc/S_OFFSET_S_C [15:0] $end
$var reg 16 U& \zusys_i/ADC_LTC2311/U0/GEN_ADC_CONT[0].inst_adc/S_RAW_VALUE_S_C [15:0] $end
$var reg 32 e& zusys_i/ADC_LTC2311/U0/S_ADC_CONV_VALUE [31:0] $end
$var reg 32 '' zusys_i/ADC_LTC2311/U0/S_ADC_SPI_CR [31:0] $end
$var reg 1 G' zusys_i/ADC_LTC2311/U0/SS_N $end
$var reg 1 H' zusys_i/ADC_LTC2311/U0/SI_VALID $end
$var reg 32 I' zusys_i/ADC_LTC2311/U0/S_ADC_SPI_CR_IN [31:0] $end
$var reg 32 i' zusys_i/ADC_LTC2311/U0/S_ADC_SPI_CFGR [31:0] $end
$var reg 32 +( zusys_i/ADC_LTC2311/U0/S_ADC_CR_IN [31:0] $end
$var reg 32 K( zusys_i/ADC_LTC2311/U0/S_ADC_CR [31:0] $end
$var reg 1 k( zusys_i/ADC_LTC2311/U0/RAW_VALID $end
$var reg 32 l( zusys_i/ADC_LTC2311/U0/S_ADC_MASTER_CHANNEL [31:0] $end
$var reg 18 .) \zusys_i/ADC_LTC2311/U0/GEN_ADC_CONT[0].inst_adc/S_CONVERSION_S_C [17:0] $end
$var reg 144 @) \zusys_i/ADC_LTC2311/U0/GEN_ADC_CONT[0].inst_adc/S_CONVERSION [143:0] $end
$var reg 128 r* \zusys_i/ADC_LTC2311/U0/GEN_ADC_CONT[0].inst_adc/S_OFFSET [127:0] $end
$var reg 128 6, \zusys_i/ADC_LTC2311/U0/GEN_ADC_CONT[0].inst_adc/spi/S_RX_BUFFER [127:0] $end
$var reg 2 X- \zusys_i/ADC_LTC2311/U0/GEN_ADC_CONT[0].inst_adc/curstate [1:0] $end
$var reg 3 Z- \zusys_i/ADC_LTC2311/U0/GEN_ADC_CONT[0].inst_adc/spi/curstate [2:0] $end
$var reg 32 ]- zusys_i/ADC_LTC2311/U0/S_ADC_CHANNEL [31:0] $end
$var reg 2 }- \zusys_i/ADC_LTC2311/U0/GEN_ADC_CONT[0].inst_adc/nxtstate [1:0] $end
$var reg 35 !. \zusys_i/ADC_LTC2311/U0/GEN_ADC_CONT[0].inst_adc/S_RESULT_S_C [34:0] $end
$var reg 8 D. zusys_i/ADC_LTC2311/U0/S_POST_DELAY [7:0] $end
$var reg 16 L. zusys_i/ADC_LTC2311/U0/S_CLK_DIV [15:0] $end
$var reg 8 \. zusys_i/ADC_LTC2311/U0/S_MISO [7:0] $end
$var reg 3 d. \zusys_i/ADC_LTC2311/U0/GEN_ADC_CONT[0].inst_adc/spi/nxtstate [2:0] $end
$var reg 1 g. zusys_i/ADC_LTC2311/U0/s00_axi_aresetn $end
$var reg 1 h. zusys_i/ADC_LTC2311/U0/S_CLK $end
$var reg 1 i. zusys_i/ADC_LTC2311/U0/S_ENABLE $end
$var reg 1 j. zusys_i/ADC_LTC2311/U0/S_RESET_N $end
$var reg 1 k. zusys_i/ADC_LTC2311/U0/S_SCLK $end
$var reg 1 l. zusys_i/ADC_LTC2311/U0/S_SCLK_IN $end
$var reg 1 m. zusys_i/ADC_LTC2311/U0/S_SET_CONVERSION $end
$var reg 1 n. zusys_i/ADC_LTC2311/U0/S_SET_OFFSET $end
$var reg 1 o. \zusys_i/ADC_LTC2311/U0/GEN_ADC_CONT[0].inst_adc/S_SPI_ENABLE $end
$var reg 1 p. zusys_i/ADC_LTC2311/U0/S_SS_IN_N $end
$var reg 1 q. _TRIGGER $end
$var reg 1 r. _WINDOW $end
$var reg 1 s. _GAP $end
$upscope $end
$enddefinitions $end
#0
$dumpvars
b1 "
b111111100001000100111111100101010101000000011011101110000000000110011001000000000000000000111110100000000000110111110000000000000010111111111111 B
0t"
b0 u"
b1 }"
b11111111111000111111111111100111000000000001101000000000000001100000000000000000111111111111101011111111110111110000000000001100 ?#
b0 a$
b11111111111000111111111111100111000000000001101000000000000001100000000000000000111111111111101011111111110111110000000000001100 #%
b0 E&
b1100 U&
b1000100010001 e&
b10000 ''
0G'
1H'
b0 I'
b0 i'
b1010 +(
b100 K(
0k(
b1 l(
b1111111111111111 .)
b1000100010001000001000100010001000001000100010001000001000100010001001111111111111111001111111111111111001111111111111111001111111111111111 @)
b0 r*
b11110001111111111111001111111111000011010000000000000011000000000000000000000000111111010111111111101111111111110000011000000000 6,
b1 X-
b10 Z-
b11110000 ]-
b1 }-
b10111111111111110100 !.
b0 D.
b0 L.
b11000110 \.
b11 d.
1g.
0h.
1i.
1j.
0k.
0l.
0m.
0n.
0o.
0p.
0q.
1r.
0s.
$end
#1
b11100011111111111110011111111111000110100000000000000110000000000000000000000000111110101111111111011111111111110000110000000000 6,
b11 Z-
b10 d.
1k.
#2
b10 Z-
b11 d.
0k.
#3
b11000111111111111100111111111111001101000000000000001100000000000000000000000000111101011111111110111111111111110001100000000000 6,
b11 Z-
b10 d.
1k.
#4
b10 Z-
b11 d.
0k.
#5
b10001111111111111001111111111111011010000000000000011000000000000000000000000000111010111111111101111111111111110011000000000000 6,
b11 Z-
b10 d.
1k.
#6
b10 Z-
b11 d.
0k.
#7
b11111111111110011111111111111110100000000000000110000000000000000000000000000110101111111111111111111111111110110000000000000 6,
b11 Z-
b10 d.
1k.
#8
b10 Z-
b10100100 \.
b11 d.
0k.
#9
b111111111111100111111111111110101000000000000101100000000000000000000000000000101011111111111111111111111111101100000000000000 6,
b11 Z-
b100100 \.
b10 d.
1k.
#10
b10 Z-
b100101 \.
b11 d.
0k.
#11
b1111111111111001111111111111100010000000000001111000000000000000000000000000000010111111111111111111111111111001000000000000001 6,
b11 Z-
b10 d.
1k.
#12
b10 Z-
b1010001 \.
b11 d.
0k.
#13
b11111111111110001111111111111001100000000000011010000000000000010000000000000000101111111111111011111111111110000000000000000011 6,
b11 Z-
b10 d.
1k.
#14
b10 Z-
b1000000 \.
b11 d.
0k.
#15
b11111111111100011111111111110011000000000000110000000000000000100000000000000000011111111111110011111111111100000000000000000110 6,
b11 Z-
b11000000 \.
b10 d.
1k.
#16
b10 Z-
b11111101 \.
b11 d.
0k.
#17
b11111111111000101111111111100111000000000001100100000000000001010000000000000001111111111111100111111111111000000000000000001101 6,
b11 Z-
b1111101 \.
b100 d.
1k.
#18
b11111111111000101111111111100111000000000001100100000000000001010000000000000001111111111111100111111111111000000000000000001101 ?#
b11111111111000101111111111100111000000000001100100000000000001010000000000000001111111111111100111111111111000000000000000001101 #%
b100 Z-
b0 d.
#19
1G'
b0 Z-
b10 }-
b1010001 \.
0k.
#20
b0 "
b1 a$
b1111111111100010 U&
0G'
0H'
1k(
b10 X-
b0 \.
#21
b1111111111100111 U&
b1000100010001 .)
b11000110 \.
#22
b11001 U&
#23
b101 U&
b11111111111111111100000000000000010 !.
#24
b111111100000000000111111100101010101000000011011101110000000000110011001000000000000000000111110100000000000110111110000000000000010111111111111 B
b1 U&
b11111111111111111100101010101010111 !.
#25
b1111111111111001 U&
b1111111111111111 .)
b11010101010101001 !.
#26
b111111100000000000111111100101010101000000011010101010000000000110011001000000000000000000111110100000000000110111110000000000000010111111111111 B
b1111111111100000 U&
b101010101010101 !.
#27
b111111100000000000111111100101010101000000011010101010000000000101010101000000000000000000111110100000000000110111110000000000000010111111111111 B
b1101 U&
b1111111111111111 !.
#28
b111111100000000000111111100101010101000000011010101010000000000101010101000000001111111111111110100000000000110111110000000000000010111111111111 B
b11111111111111110010000000000000111 !.
#29
b111111100000000000111111100101010101000000011010101010000000000101010101000000001111111111111110010000000000110111110000000000000010111111111111 B
b11111111111111000000000000000100000 !.
#30
b111111100000000000111111100101010101000000011010101010000000000101010101000000001111111111111110010000000000111000000000000000000010111111111111 B
b0 }-
b11001111111111110011 !.
#31
b1 "
b111111100000000000111111100101010101000000011010101010000000000101010101000000001111111111111110010000000000111000000000000000000011001111111111 B
b0 }"
1H'
b0 X-
b1 }-
#32
b1 }"
b0 a$
0k(
b1 X-
b1 d.
1o.
#33
b1 Z-
b11 d.
#34
b11111111110001011111111111001111000000000011001000000000000010100000000000000010111111111111001111111111110000010000000000011010 6,
b11 Z-
b10 d.
1k.
0o.
#35
b10 Z-
b11 d.
0k.
#36
b11111111100010111111111110011111000000000110010000000000000101000000000000000100111111111110011111111111100000110000000000110100 6,
b11 Z-
b10 d.
1k.
#37
b10 Z-
b11 d.
0k.
#38
b11111111000101111111111100111111000000001100100000000000001010000000000000001000111111111100111111111111000001110000000001101000 6,
b11 Z-
b10 d.
1k.
#39
b10 Z-
b11 d.
0k.
#40
b11111110001011111111111001111111000000011001000000000000010100000000000000010000111111111001111111111110000011110000000011010000 6,
b11 Z-
b10 d.
1k.
#41
b10 Z-
b11 d.
0k.
#42
b11111100010111111111110011111111000000110010000000000000101000000000000000100000111111110011111111111100000111110000000110100000 6,
b11 Z-
b10 d.
1k.
#43
b10 Z-
b11 d.
0k.
#44
b11111000101111111111100111111111000001100100000000000001010000000000000001000000111111100111111111111000001111110000001101000000 6,
b11 Z-
b10 d.
1k.
#45
b10 Z-
b11 d.
0k.
#46
b11110001011111111111001111111111000011001000000000000010100000000000000010000000111111001111111111110000011111110000011010000000 6,
b11 Z-
b10 d.
1k.
#47
b10 Z-
b11 d.
0k.
#48
b11100010111111111110011111111111000110010000000000000101000000000000000100000000111110011111111111100000111111110000110100000000 6,
b11 Z-
b10 d.
1k.
#49
b10 Z-
b11 d.
0k.
#50
b11000101111111111100111111111111001100100000000000001010000000000000001000000000111100111111111111000001111111110001101000000000 6,
b11 Z-
b10 d.
1k.
#51
b10 Z-
b11 d.
0k.
#52
b10001011111111111001111111111111011001000000000000010100000000000000010000000000111001111111111110000011111111110011010000000000 6,
b11 Z-
b10 d.
1k.
#53
b10 Z-
b11 d.
0k.
#54
b10111111111110011111111111111110010000000000000101000000000000000100000000000110011111111111100000111111111110110100000000000 6,
b11 Z-
b10 d.
1k.
#55
b10 Z-
b10100100 \.
b11 d.
0k.
#56
b101111111111100111111111111110100100000000000101010000000000000001000000000000100111111111111100001111111111101101000000000000 6,
b11 Z-
b100100 \.
b10 d.
1k.
#57
b10 Z-
b100101 \.
b11 d.
0k.
#58
b1011111111111001111111111111100001000000000001110100000000000000010000000000000001111111111111100011111111111001010000000000001 6,
b11 Z-
b10 d.
1k.
#59
b10 Z-
b1010100 \.
b11 d.
0k.
#60
b10111111111110001111111111111001010000000000011001000000000000010100000000000000011111111111111100111111111110000100000000000010 6,
b11 Z-
b10 d.
1k.
#61
b10 Z-
b1101001 \.
b11 d.
0k.
#62
b1111111111100011111111111110011100000000000110110000000000000101000000000000001111111111111111001111111111100001000000000000101 6,
b11 Z-
b11101001 \.
b10 d.
1k.
#63
b10 Z-
b10000001 \.
b11 d.
0k.
#64
b11111111111000111111111111100110000000000001101000000000000001000000000000000010111111111111110011111111111000000000000000001011 6,
b11 Z-
b100 d.
1k.
#65
b11111111111000111111111111100110000000000001101000000000000001000000000000000010111111111111110011111111111000000000000000001011 ?#
b11111111111000111111111111100110000000000001101000000000000001000000000000000010111111111111110011111111111000000000000000001011 #%
b100 Z-
b0 d.
#66
1G'
b0 Z-
b10 }-
b10110101 \.
0k.
#67
b0 "
b1 a$
b1111111111100011 U&
0G'
0H'
1k(
b10 X-
b0 \.
#68
b1111111111100110 U&
b1000100010001 .)
b11000010 \.
#69
b11010 U&
#70
b100 U&
b11111111111111111100001000100010011 !.
#71
b111111100001000100111111100101010101000000011010101010000000000101010101000000001111111111111110010000000000111000000000000000000011001111111111 B
b10 U&
b11111111111111111100100010001000110 !.
#72
b111111100001000100111111100100010001000000011010101010000000000101010101000000001111111111111110010000000000111000000000000000000011001111111111 B
b1111111111111100 U&
b1111111111111111 .)
b11011101110111010 !.
#73
b111111100001000100111111100100010001000000011011101110000000000101010101000000001111111111111110010000000000111000000000000000000011001111111111 B
b1111111111100000 U&
b100010001000100 !.
#74
b111111100001000100111111100100010001000000011011101110000000000100010001000000001111111111111110010000000000111000000000000000000011001111111111 B
b1011 U&
b11111111111111110 !.
#75
b111111100001000100111111100100010001000000011011101110000000000100010001000000011111111111111110010000000000111000000000000000000011001111111111 B
b11111111111111111000000000000000100 !.
#76
b111111100001000100111111100100010001000000011011101110000000000100010001000000011111111111111111000000000000111000000000000000000011001111111111 B
b11111111111111000000000000000100000 !.
#77
b0 }-
b10101111111111110101 !.
#78
b1 "
b111111100001000100111111100100010001000000011011101110000000000100010001000000011111111111111111000000000000111000000000000000000010101111111111 B
b0 }"
1H'
b0 X-
b1 }-
#79
b1 }"
b0 a$
0k(
b1 X-
b1 d.
1o.
#80
b1 Z-
b11 d.
#81
b11111111110001111111111111001101000000000011010000000000000010000000000000000100111111111111100011111111110000010000000000010110 6,
b11 Z-
b10 d.
1k.
0o.
#82
b10 Z-
b11000110 \.
b11 d.
0k.
#83
b11111111100011111111111110011011000000000110100000000000000100000000000000001000111111111111000111111111100000110000000000101100 6,
b11 Z-
b10 d.
1k.
#84
b10 Z-
b11 d.
0k.
#85
b11111111000111111111111100110111000000001101000000000000001000000000000000010000111111111110001111111111000001110000000001011000 6,
b11 Z-
b10 d.
1k.
#86
b10 Z-
b11 d.
0k.
#87
b11111110001111111111111001101111000000011010000000000000010000000000000000100000111111111100011111111110000011110000000010110000 6,
b11 Z-
b10 d.
1k.
#88
b10 Z-
b11 d.
0k.
#89
b11111100011111111111110011011111000000110100000000000000100000000000000001000000111111111000111111111100000111110000000101100000 6,
b11 Z-
b10 d.
1k.
#90
b10 Z-
b11 d.
0k.
#91
b11111000111111111111100110111111000001101000000000000001000000000000000010000000111111110001111111111000001111110000001011000000 6,
b11 Z-
b10 d.
1k.
#92
b10 Z-
b11 d.
0k.
#93
b11110001111111111111001101111111000011010000000000000010000000000000000100000000111111100011111111110000011111110000010110000000 6,
b11 Z-
b10 d.
1k.
#94
b10 Z-
b11 d.
0k.
#95
b11100011111111111110011011111111000110100000000000000100000000000000001000000000111111000111111111100000111111110000101100000000 6,
b11 Z-
b10 d.
1k.
#96
b10 Z-
b11 d.
0k.
#97
b11000111111111111100110111111111001101000000000000001000000000000000010000000000111110001111111111000001111111110001011000000000 6,
b11 Z-
b10 d.
1k.
#98
b10 Z-
b11 d.
0k.
#99
b10001111111111111001101111111111011010000000000000010000000000000000100000000000111100011111111110000011111111110010110000000000 6,
b11 Z-
b10 d.
1k.
#100
b10 Z-
b11 d.
0k.
#101
b11111111111110011011111111111110100000000000000100000000000000001000000000000111000111111111100000111111111110101100000000000 6,
b11 Z-
b10 d.
1k.
#102
b10 Z-
b10100100 \.
b11 d.
0k.
#103
b111111111111100110111111111110101000000000000101000000000000000010000000000000110001111111111100001111111111101011000000000000 6,
b11 Z-
b100100 \.
b10 d.
1k.
#104
b10 Z-
b100001 \.
b11 d.
0k.
#105
b1111111111111001101111111111100010000000000001110000000000000000100000000000000100011111111111000011111111111000110000000000001 6,
b11 Z-
b10 d.
1k.
#106
b10 Z-
b1010100 \.
b11 d.
0k.
#107
b11111111111110011011111111111001100000000000011000000000000000011000000000000000000111111111110100111111111110001100000000000010 6,
b11 Z-
b11010100 \.
b10 d.
1k.
#108
b10 Z-
b11001101 \.
b11 d.
0k.
#109
b11111111111100100111111111110011000000000000110000000000000000100000000000000001001111111111101101111111111100001000000000000101 6,
b11 Z-
b1001101 \.
b10 d.
1k.
#110
b10 Z-
b110101 \.
b11 d.
0k.
#111
b11111111111001001111111111100110000000000001100100000000000001010000000000000010011111111111011111111111111000000000000000001011 6,
b11 Z-
b100 d.
1k.
#112
b11111111111001001111111111100110000000000001100100000000000001010000000000000010011111111111011111111111111000000000000000001011 ?#
b11111111111001001111111111100110000000000001100100000000000001010000000000000010011111111111011111111111111000000000000000001011 #%
b100 Z-
b0 d.
#113
1G'
b0 Z-
b10 }-
b1 \.
0k.
#114
b0 "
b1 a$
b1111111111100100 U&
0G'
0H'
1k(
b10 X-
b0 \.
#115
b1111111111100110 U&
b1000100010001 .)
b11000110 \.
#116
b11001 U&
#117
b101 U&
b11111111111111111100010001000100100 !.
#118
b111111100010001000111111100100010001000000011011101110000000000100010001000000011111111111111111000000000000111000000000000000000010101111111111 B
b10 U&
b11111111111111111100100010001000110 !.
#119
b111111111110111 U&
b1111111111111111 .)
b11010101010101001 !.
#120
b111111100010001000111111100100010001000000011010101010000000000100010001000000011111111111111111000000000000111000000000000000000010101111111111 B
b1111111111100000 U&
b101010101010101 !.
#121
b111111100010001000111111100100010001000000011010101010000000000101010101000000011111111111111111000000000000111000000000000000000010101111111111 B
b1011 U&
b11111111111111110 !.
#122
b1111111111101101000000000001001 !.
#123
b111111100010001000111111100100010001000000011010101010000000000101010101000000011111111111111101101000000000111000000000000000000010101111111111 B
b11111111111111000000000000000100000 !.
#124
b0 }-
b10101111111111110101 !.
#125
b1 "
b0 }"
1H'
b0 X-
b1 }-
#126
b1 }"
b0 a$
0k(
b1 X-
b1 d.
1o.
#127
b1 Z-
b11 d.
#128
b11111111110010011111111111001101000000000011001000000000000010100000000000000100111111111110111111111111110000010000000000010110 6,
b11 Z-
b10 d.
1k.
0o.
#129
b10 Z-
b11 d.
0k.
#130
b11111111100100111111111110011011000000000110010000000000000101000000000000001000111111111101111111111111100000110000000000101100 6,
b11 Z-
b10 d.
1k.
#131
b10 Z-
b11 d.
0k.
#132
b11111111001001111111111100110111000000001100100000000000001010000000000000010000111111111011111111111111000001110000000001011000 6,
b11 Z-
b10 d.
1k.
#133
b10 Z-
b11 d.
0k.
#134
b11111110010011111111111001101111000000011001000000000000010100000000000000100000111111110111111111111110000011110000000010110000 6,
b11 Z-
b10 d.
1k.
#135
b10 Z-
b11 d.
0k.
#136
b11111100100111111111110011011111000000110010000000000000101000000000000001000000111111101111111111111100000111110000000101100000 6,
b11 Z-
b10 d.
1k.
#137
b10 Z-
b11 d.
0k.
#138
b11111001001111111111100110111111000001100100000000000001010000000000000010000000111111011111111111111000001111110000001011000000 6,
b11 Z-
b10 d.
1k.
#139
b10 Z-
b11 d.
0k.
#140
b11110010011111111111001101111111000011001000000000000010100000000000000100000000111110111111111111110000011111110000010110000000 6,
b11 Z-
b10 d.
1k.
#141
b10 Z-
b11 d.
0k.
#142
b11100100111111111110011011111111000110010000000000000101000000000000001000000000111101111111111111100000111111110000101100000000 6,
b11 Z-
b10 d.
1k.
#143
b10 Z-
b11 d.
0k.
#144
b11001001111111111100110111111111001100100000000000001010000000000000010000000000111011111111111111000001111111110001011000000000 6,
b11 Z-
b10 d.
1k.
#145
b10 Z-
b11 d.
0k.
#146
b10010011111111111001101111111111011001000000000000010100000000000000100000000000110111111111111110000011111111110010110000000000 6,
b11 Z-
b10 d.
1k.
#147
b10 Z-
b11 d.
0k.
#148
b100111111111110011011111111111110010000000000000101000000000000001000000000000101111111111111100000111111111110101100000000000 6,
b11 Z-
b10 d.
1k.
#149
b10 Z-
b10100100 \.
b11 d.
0k.
#150
b1001111111111100110111111111110100100000000000101010000000000000010000000000000011111111111111100001111111111101011000000000000 6,
b11 Z-
b100100 \.
b10 d.
1k.
#151
b10 Z-
b100001 \.
b11 d.
0k.
#152
b10011111111111001101111111111100001000000000001110100000000000000100000000000000111111111111111000011111111111000110000000000001 6,
b11 Z-
b10 d.
1k.
#153
b10 Z-
b1010101 \.
b11 d.
0k.
#154
b111111111110011011111111111001010000000000011001000000000000011000000000000000111111111111110100111111111110001100000000000011 6,
b11 Z-
b11010101 \.
b10 d.
1k.
#155
b10 Z-
b11111100 \.
b11 d.
0k.
#156
b1111111111100100111111111110011100000000000110110000000000000110000000000000001111111111111101101111111111100001000000000000110 6,
b11 Z-
b1111100 \.
b10 d.
1k.
#157
b10 Z-
b0 \.
b11 d.
0k.
#158
b11111111111001001111111111100110000000000001101000000000000001100000000000000010111111111111011011111111111000000000000000001100 6,
b11 Z-
b100 d.
1k.
#159
b11111111111001001111111111100110000000000001101000000000000001100000000000000010111111111111011011111111111000000000000000001100 ?#
b11111111111001001111111111100110000000000001101000000000000001100000000000000010111111111111011011111111111000000000000000001100 #%
b100 Z-
b0 d.
#160
1G'
b0 Z-
b10 }-
b110100 \.
0k.
#161
b0 "
b1 a$
b1111111111100100 U&
0G'
0H'
1k(
b10 X-
b0 \.
#162
b1111111111100110 U&
b1000100010001 .)
b11000110 \.
#163
b11010 U&
#164
b110 U&
b11111111111111111100010001000100100 !.
#165
b10 U&
b11111111111111111100100010001000110 !.
#166
b1111111111110110 U&
b1111111111111111 .)
b11011101110111010 !.
#167
b111111100010001000111111100100010001000000011011101110000000000101010101000000011111111111111101101000000000111000000000000000000010101111111111 B
b1111111111100000 U&
b110011001100110 !.
#168
b111111100010001000111111100100010001000000011011101110000000000110011001000000011111111111111101101000000000111000000000000000000010101111111111 B
b1100 U&
b11111111111111110 !.
#169
b11111111111111101100000000000001010 !.
#170
b111111100010001000111111100100010001000000011011101110000000000110011001000000011111111111111101100000000000111000000000000000000010101111111111 B
b11111111111111000000000000000100000 !.
#171
b0 }-
b10111111111111110100 !.
#172
b1 "
b111111100010001000111111100100010001000000011011101110000000000110011001000000011111111111111101100000000000111000000000000000000010111111111111 B
b0 }"
1H'
b0 X-
b1 }-
#173
b1 }"
b0 a$
0k(
b1 X-
b1 d.
1o.
#174
b1 Z-
b11 d.
#175
b11111111110010011111111111001101000000000011010000000000000011000000000000000100111111111110110111111111110000010000000000011000 6,
b11 Z-
b10 d.
1k.
0o.
#176
b10 Z-
b11 d.
0k.
#177
b11111111100100111111111110011011000000000110100000000000000110000000000000001000111111111101101111111111100000110000000000110000 6,
b11 Z-
b10 d.
1k.
#178
b10 Z-
b11 d.
0k.
#179
b11111111001001111111111100110111000000001101000000000000001100000000000000010000111111111011011111111111000001110000000001100000 6,
b11 Z-
b10 d.
1k.
#180
b10 Z-
b11 d.
0k.
#181
b11111110010011111111111001101111000000011010000000000000011000000000000000100000111111110110111111111110000011110000000011000000 6,
b11 Z-
b10 d.
1k.
#182
b10 Z-
b11 d.
0k.
#183
b11111100100111111111110011011111000000110100000000000000110000000000000001000000111111101101111111111100000111110000000110000000 6,
b11 Z-
b10 d.
1k.
#184
b10 Z-
b11 d.
0k.
#185
b11111001001111111111100110111111000001101000000000000001100000000000000010000000111111011011111111111000001111110000001100000000 6,
b11 Z-
b10 d.
1k.
#186
b10 Z-
b11 d.
0k.
#187
b11110010011111111111001101111111000011010000000000000011000000000000000100000000111110110111111111110000011111110000011000000000 6,
b11 Z-
b10 d.
1k.
#188
b10 Z-
b11 d.
0k.
#189
b11100100111111111110011011111111000110100000000000000110000000000000001000000000111101101111111111100000111111110000110000000000 6,
b11 Z-
b10 d.
1k.
#190
b10 Z-
b11 d.
0k.
#191
b11001001111111111100110111111111001101000000000000001100000000000000010000000000111011011111111111000001111111110001100000000000 6,
b11 Z-
b10 d.
1k.
#192
b10 Z-
b11 d.
0k.
#193
b10010011111111111001101111111111011010000000000000011000000000000000100000000000110110111111111110000011111111110011000000000000 6,
b11 Z-
b10 d.
1k.
#194
b10 Z-
b11 d.
0k.
#195
b100111111111110011011111111111110100000000000000110000000000000001000000000000101101111111111100000111111111110110000000000000 6,
b11 Z-
b10 d.
1k.
#196
b10 Z-
b10100100 \.
b11 d.
0k.
#197
b1001111111111100110111111111110101000000000000101100000000000000010000000000000011011111111111100001111111111101100000000000000 6,
b11 Z-
b100100 \.
b10 d.
1k.
#198
b10 Z-
b1100101 \.
b11 d.
0k.
#199
b10011111111111001101111111111101010000000000001111000000000000000100000000000000110111111111111100011111111111001000000000000001 6,
b11 Z-
b10 d.
1k.
#200
b10 Z-
b10001 \.
b11 d.
0k.
#201
b111111111110001011111111111010100000000000011010000000000000011000000000000000101111111111111000111111111110000000000000000011 6,
b11 Z-
b10 d.
1k.
#202
b10 Z-
b1100 \.
b11 d.
0k.
#203
b1111111111100010111111111110100000000000000110000000000000000100000000000000001011111111111110101111111111100000000000000000110 6,
b11 Z-
b10001100 \.
b10 d.
1k.
#204
b10 Z-
b10100001 \.
b11 d.
0k.
#205
b11111111111000101111111111101000000000000001100100000000000001000000000000000010111111111111101011111111111000000000000000001101 6,
b11 Z-
b100001 \.
b100 d.
1k.
#206
b11111111111000101111111111101000000000000001100100000000000001000000000000000010111111111111101011111111111000000000000000001101 ?#
b11111111111000101111111111101000000000000001100100000000000001000000000000000010111111111111101011111111111000000000000000001101 #%
b100 Z-
b0 d.
#207
1G'
b0 Z-
b10 }-
b110101 \.
0k.
#208
b0 "
b1 a$
b1111111111100010 U&
0G'
0H'
1k(
b10 X-
b0 \.
#209
b1111111111101000 U&
b1000100010001 .)
b11000110 \.
#210
b11001 U&
#211
b100 U&
b11111111111111111100000000000000010 !.
#212
b111111100000000000111111100100010001000000011011101110000000000110011001000000011111111111111101100000000000111000000000000000000010111111111111 B
b10 U&
b11111111111111111100110011001101000 !.
#213
b111111100000000000111111100110011001000000011011101110000000000110011001000000011111111111111101100000000000111000000000000000000010111111111111 B
b1111111111111010 U&
b1111111111111111 .)
b11010101010101001 !.
#214
b111111100000000000111111100110011001000000011010101010000000000110011001000000011111111111111101100000000000111000000000000000000010111111111111 B
b1111111111100000 U&
b100010001000100 !.
#215
b111111100000000000111111100110011001000000011010101010000000000100010001000000011111111111111101100000000000111000000000000000000010111111111111 B
b1101 U&
b11111111111111110 !.
#216
b11111111111111110100000000000000110 !.
#217
b111111100000000000111111100110011001000000011010101010000000000100010001000000011111111111111110100000000000111000000000000000000010111111111111 B
b11111111111111000000000000000100000 !.
#218
b0 }-
b11001111111111110011 !.
#219
b1 "
b111111100000000000111111100110011001000000011010101010000000000100010001000000011111111111111110100000000000111000000000000000000011001111111111 B
b0 }"
1H'
b0 X-
b1 }-
#220
b1 }"
b0 a$
0k(
b1 X-
b1 d.
1o.
#221
b1 Z-
b11 d.
#222
b11111111110001011111111111010001000000000011001000000000000010000000000000000100111111111111010111111111110000010000000000011010 6,
b11 Z-
b10 d.
1k.
0o.
#223
b10 Z-
b11 d.
0k.
#224
b11111111100010111111111110100011000000000110010000000000000100000000000000001000111111111110101111111111100000110000000000110100 6,
b11 Z-
b10 d.
1k.
#225
b10 Z-
b11 d.
0k.
#226
b11111111000101111111111101000111000000001100100000000000001000000000000000010000111111111101011111111111000001110000000001101000 6,
b11 Z-
b10 d.
1k.
#227
b10 Z-
b11 d.
0k.
#228
b11111110001011111111111010001111000000011001000000000000010000000000000000100000111111111010111111111110000011110000000011010000 6,
b11 Z-
b10 d.
1k.
#229
b10 Z-
b11 d.
0k.
#230
b11111100010111111111110100011111000000110010000000000000100000000000000001000000111111110101111111111100000111110000000110100000 6,
b11 Z-
b10 d.
1k.
#231
b10 Z-
b11 d.
0k.
#232
b11111000101111111111101000111111000001100100000000000001000000000000000010000000111111101011111111111000001111110000001101000000 6,
b11 Z-
b10 d.
1k.
#233
b10 Z-
b11 d.
0k.
#234
b11110001011111111111010001111111000011001000000000000010000000000000000100000000111111010111111111110000011111110000011010000000 6,
b11 Z-
b10 d.
1k.
#235
b10 Z-
b11 d.
0k.
#236
b11100010111111111110100011111111000110010000000000000100000000000000001000000000111110101111111111100000111111110000110100000000 6,
b11 Z-
b10 d.
1k.
#237
b10 Z-
b11 d.
0k.
#238
b11000101111111111101000111111111001100100000000000001000000000000000010000000000111101011111111111000001111111110001101000000000 6,
b11 Z-
b10 d.
1k.
#239
b10 Z-
b11 d.
0k.
#240
b10001011111111111010001111111111011001000000000000010000000000000000100000000000111010111111111110000011111111110011010000000000 6,
b11 Z-
b10 d.
1k.
#241
b10 Z-
b11 d.
0k.
#242
b10111111111110100011111111111110010000000000000100000000000000001000000000000110101111111111100000111111111110110100000000000 6,
b11 Z-
b10 d.
1k.
#243
b10 Z-
b10100100 \.
b11 d.
0k.
#244
b101111111111101000111111111110100100000000000101000000000000000010000000000000101011111111111100001111111111101101000000000000 6,
b11 Z-
b100100 \.
b10 d.
1k.
#245
b10 Z-
b1100101 \.
b11 d.
0k.
#246
b1011111111111000001111111111101001000000000001110000000000000000100000000000000010111111111111100011111111111001010000000000001 6,
b11 Z-
b10 d.
1k.
#247
b10 Z-
b10000 \.
b11 d.
0k.
#248
b10111111111110000011111111111010010000000000011000000000000000011000000000000000101111111111111000111111111110000100000000000010 6,
b11 Z-
b10 d.
1k.
#249
b10 Z-
b1 \.
b11 d.
0k.
#250
b1111111111100010111111111110100100000000000110000000000000000100000000000000000011111111111110001111111111100001000000000000101 6,
b11 Z-
b10000001 \.
b10 d.
1k.
#251
b10 Z-
b10101111 \.
b11 d.
0k.
#252
b11111111111000101111111111101000000000000001100100000000000001000000000000000001111111111111100111111111111000010000000000001011 6,
b11 Z-
b101111 \.
b100 d.
1k.
