ip_cores/ADC_LTC2311_3.0/test_bench/.Xil/Vivado-35366-ws-wendt/hw_ila_data_3/zip_work/waveform.vcd
$date
        2021-Jun-09 13:36:28
$end
$version
        Vivado v2020.1 (64-bit)
$end
$timescale
        1ps
$end
$scope module dut $end
$var reg 2 " \adc_tb_i/ADC_LTC2311/U0/GEN_ADC_CONT[0].inst_adc/curstate [1:0] $end
$var reg 144 $ \adc_tb_i/ADC_LTC2311/U0/GEN_ADC_CONT[0].inst_adc/S_CONVERSION [143:0] $end
$var reg 32 V" adc_tb_i/ADC_LTC2311/U0/S_ADC_CHANNEL [31:0] $end
$var reg 144 v" adc_tb_i/ADC_LTC2311/U0/SI_VALUE [143:0] $end
$var reg 32 J$ adc_tb_i/ADC_LTC2311/U0/S_ADC_CR_IN [31:0] $end
$var reg 1 j$ adc_tb_i/ADC_LTC2311/U0/RAW_VALID $end
$var reg 128 k$ adc_tb_i/ADC_LTC2311/U0/RAW_VALUE [127:0] $end
$var reg 1 /& adc_tb_i/ADC_LTC2311/U0/SS_N $end
$var reg 1 0& adc_tb_i/ADC_LTC2311/U0/SI_VALID $end
$var reg 8 1& adc_tb_i/ADC_LTC2311/U0/S_MISO [7:0] $end
$var reg 32 9& adc_tb_i/ADC_LTC2311/U0/S_ADC_CONV_VALUE [31:0] $end
$var reg 32 Y& adc_tb_i/ADC_LTC2311/U0/S_ADC_CR [31:0] $end
$var reg 32 y& adc_tb_i/ADC_LTC2311/U0/S_ADC_MASTER_BUSY [31:0] $end
$var reg 32 ;' adc_tb_i/ADC_LTC2311/U0/S_ADC_SPI_CR [31:0] $end
$var reg 32 [' adc_tb_i/ADC_LTC2311/U0/S_ADC_MASTER_SI_FINISH [31:0] $end
$var reg 32 {' adc_tb_i/ADC_LTC2311/U0/S_ADC_MASTER_FINISH [31:0] $end
$var reg 32 =( adc_tb_i/ADC_LTC2311/U0/S_ADC_SPI_CR_IN [31:0] $end
$var reg 16 ]( adc_tb_i/ADC_LTC2311/U0/S_CLK_DIV [15:0] $end
$var reg 1 m( adc_tb_i/ADC_LTC2311/U0/TRIGGER_CNV $end
$var reg 32 n( adc_tb_i/ADC_LTC2311/U0/S_ADC_MASTER_CHANNEL [31:0] $end
$var reg 32 0) adc_tb_i/ADC_LTC2311/U0/S_ADC_SPI_CFGR [31:0] $end
$var reg 8 P) adc_tb_i/ADC_LTC2311/U0/S_POST_DELAY [7:0] $end
$var reg 8 X) adc_tb_i/ADC_LTC2311/U0/S_PRE_DELAY [7:0] $end
$var reg 16 `) \adc_tb_i/ADC_LTC2311/U0/GEN_ADC_CONT[0].inst_adc/S_OFFSET_S_C [15:0] $end
$var reg 16 p) \adc_tb_i/ADC_LTC2311/U0/GEN_ADC_CONT[0].inst_adc/S_RAW_VALUE_S_C [15:0] $end
$var reg 35 "* \adc_tb_i/ADC_LTC2311/U0/GEN_ADC_CONT[0].inst_adc/S_RESULT_S_C [34:0] $end
$var reg 2 E* \adc_tb_i/ADC_LTC2311/U0/GEN_ADC_CONT[0].inst_adc/nxtstate [1:0] $end
$var reg 128 G* \adc_tb_i/ADC_LTC2311/U0/GEN_ADC_CONT[0].inst_adc/S_SPI_RAW_VALUE [127:0] $end
$var reg 3 i+ \adc_tb_i/ADC_LTC2311/U0/GEN_ADC_CONT[0].inst_adc/spi/nxtstate [2:0] $end
$var reg 18 l+ \adc_tb_i/ADC_LTC2311/U0/GEN_ADC_CONT[0].inst_adc/S_CONVERSION_S_C [17:0] $end
$var reg 3 ~+ \adc_tb_i/ADC_LTC2311/U0/GEN_ADC_CONT[0].inst_adc/spi/curstate [2:0] $end
$var reg 128 #, \adc_tb_i/ADC_LTC2311/U0/GEN_ADC_CONT[0].inst_adc/spi/S_RX_BUFFER [127:0] $end
$var reg 128 E- \adc_tb_i/ADC_LTC2311/U0/GEN_ADC_CONT[0].inst_adc/S_OFFSET [127:0] $end
$var reg 1 g. adc_tb_i/ADC_LTC2311/U0/S_CLK $end
$var reg 1 h. \adc_tb_i/ADC_LTC2311/U0/GEN_ADC_CONT[0].inst_adc/spi/S_CPHA $end
$var reg 1 i. \adc_tb_i/ADC_LTC2311/U0/GEN_ADC_CONT[0].inst_adc/spi/S_CPOL $end
$var reg 1 j. adc_tb_i/ADC_LTC2311/U0/S_ENABLE $end
$var reg 1 k. adc_tb_i/ADC_LTC2311/U0/S_RESET_N $end
$var reg 1 l. adc_tb_i/ADC_LTC2311/U0/S_SCLK $end
$var reg 1 m. adc_tb_i/ADC_LTC2311/U0/S_SCLK_IN $end
$var reg 1 n. adc_tb_i/ADC_LTC2311/U0/S_SET_CONVERSION $end
$var reg 1 o. adc_tb_i/ADC_LTC2311/U0/S_SET_OFFSET $end
$var reg 1 p. \adc_tb_i/ADC_LTC2311/U0/GEN_ADC_CONT[0].inst_adc/S_SPI_ENABLE $end
$var reg 1 q. adc_tb_i/ADC_LTC2311/U0/S_SPI_MANUAL $end
$var reg 1 r. adc_tb_i/ADC_LTC2311/U0/S_SS_IN_N $end
$var reg 1 s. _TRIGGER $end
$var reg 1 t. _WINDOW $end
$var reg 1 u. _GAP $end
$upscope $end
$enddefinitions $end
#0
$dumpvars
b0 "
b10000000000000000010000000000000000010000000000000000010000000000000000010000000000000000010000000000000000010000000000000000010 $
b11111111 V"
b111111111010101011111111111111111111000000000000000000000000000000000000000000000000000000111111111111111111111111111111111111000000000000000000 v"
b1010 J$
1j$
b10101010110111001111111111010011000000000011010100000000000010100000000000000101111111111110110111111111110000000000000000010001 k$
1/&
10&
b0 1&
b1010 9&
b0 Y&
b0 y&
b100000 ;'
b1 ['
b1 {'
b0 =(
b0 ](
0m(
b1 n(
b0 0)
b0 P)
b0 X)
b1010 `)
b10001 p)
b11011 "*
b0 E*
b10101010110111001111111111010011000000000011010100000000000010100000000000000101111111111110110111111111110000000000000000010001 G*
b0 i+
b1 l+
b0 ~+
b10101010110111001111111111010011000000000011010100000000000010100000000000000101111111111110110111111111110000000000000000010001 #,
b10100000000000001010000000000000101000000000000010100000000000001010000000000000101000000000000010100000000000001010 E-
1g.
0h.
1i.
0j.
1k.
1l.
0m.
0n.
0o.
0p.
0q.
0r.
0s.
1t.
0u.
$end
#500
1m(
1s.
#501
b1 E*
1j.
#502
b1 "
0j$
b1 y&
b0 {'
b1 i+
1p.
#503
0/&
b11 i+
b1 ~+
#504
b11000110 1&
b10 i+
b11 ~+
b1010101101110001111111110100110000000000110101000000000000101000000000000001010111111111101101011111111100000000000000000100010 #,
0l.
0p.
#505
b11 i+
b10 ~+
1l.
#506
b10 i+
b11 ~+
b10101011011100011111111101001101000000001101010000000000001010000000000000010100111111111011010111111111000000010000000001000100 #,
0l.
#507
b1000110 1&
b11 i+
b10 ~+
1l.
#508
b10 i+
b11 ~+
b1010110111000101111111010011011000000011010100000000000010100000000000000101000111111110110101111111110000000110000000010001000 #,
0l.
#509
b11000110 1&
b11 i+
b10 ~+
1l.
#510
b10 i+
b11 ~+
b10101101110001011111110100110111000000110101000000000000101000000000000001010000111111101101011111111100000001110000000100010000 #,
0l.
#511
b1000110 1&
b11 i+
b10 ~+
1l.
#512
b10 i+
b11 ~+
b1011011100010101111101001101111000001101010000000000001010000000000000010100000111111011010111111111000000011110000001000100000 #,
0l.
#513
b11000110 1&
b11 i+
b10 ~+
1l.
#514
b10 i+
b11 ~+
b10110111000101011111010011011111000011010100000000000010100000000000000101000000111110110101111111110000000111110000010001000000 #,
0l.
#515
b1000110 1&
b11 i+
b10 ~+
1l.
#516
b10 i+
b11 ~+
b1101110001010101110100110111111000110101000000000000101000000000000001010000000111101101011111111100000001111110000100010000000 #,
0l.
#517
b11000110 1&
b11 i+
b10 ~+
1l.
#518
b10 i+
b11 ~+
b11011100010101011101001101111111001101010000000000001010000000000000010100000000111011010111111111000000011111110001000100000000 #,
0l.
#519
b1000110 1&
b11 i+
b10 ~+
1l.
#520
b10 i+
b11 ~+
b10111000101010101010011011111111011010100000000000010100000000000000101000000000110110101111111110000000111111110010001000000000 #,
0l.
#521
b11000110 1&
b11 i+
b10 ~+
1l.
#522
b10 i+
b11 ~+
b1110001010101010100110111111111110101000000000000101000000000000001010000000000101101011111111100000001111111110100010000000000 #,
0l.
#523
b11 i+
b10 ~+
1l.
#524
b10 i+
b11 ~+
b11100010101010111001101111111111101010000000000001010000000000000010100000000000011010111111111100000011111111111000100000000000 #,
0l.
#525
b100100 1&
b11 i+
b10 ~+
1l.
#526
b10 i+
b11 ~+
b11000101010101100011011111111110010100000000000110100000000000000101000000000000110101111111111100000111111111100001000000000000 #,
0l.
#527
b10100001 1&
b11 i+
b10 ~+
1l.
#528
b10110001 1&
b10 i+
b11 ~+
b10001010101011010110111111111100101000000000001101000000000000001010000000000000101011111111111000001111111111000010000000000001 #,
0l.
#529
b11010100 1&
b11 i+
b10 ~+
1l.
#530
b10 i+
b11 ~+
b10101010110111101111111111001010000000000011010000000000000010100000000000000010111111111110100011111111110000100000000000010 #,
0l.
#531
b1010000 1&
b11 i+
b10 ~+
1l.
#532
b1001000 1&
b10 i+
b11 ~+
b101010101101101011111111110011100000000000110000000000000000111000000000000000101111111111101000111111111100001000000000000100 #,
0l.
#533
b11101111 1&
b11 i+
b10 ~+
1l.
#534
b11111111 1&
b10 i+
b11 ~+
b1010101011011010111111111100111000000000001100100000000000001100000000000000001011111111111010101111111111000010000000000001001 #,
0l.
#535
b10111110 1&
b11 i+
b10 ~+
1l.
#536
b10100110 1&
b100 i+
b11 ~+
b10101010110110111111111111001110000000000011001100000000000011010000000000000011111111111110101111111111110000110000000000010010 #,
0l.
#537
b10101010110110111111111111001110000000000011001100000000000011010000000000000011111111111110101111111111110000110000000000010010 k$
b0 1&
b10101010110110111111111111001110000000000011001100000000000011010000000000000011111111111110101111111111110000110000000000010010 G*
b0 i+
b100 ~+
#538
1/&
b10 E*
b0 ~+
#539
b10 "
1j$
00&
b0 ['
b1 {'
b1010101011011011 p)
1l.
#540
b1111111111001110 p)
b10 l+
#541
b110011 p)
#542
b1101 p)
b11111111111111111110101010111001010 "*
#543
b111111110101010111111111111111111111000000000000000000000000000000000000000000000000000000111111111111111111111111111111111111000000000000000000 v"
b11 p)
b11111111111111111111111111110110000 "*
#544
b111111110101010111111111111111111110000000000000000000000000000000000000000000000000000000111111111111111111111111111111111111000000000000000000 v"
b1111111111101011 p)
b1111010 "*
#545
b111111110101010111111111111111111110000000000000000001000000000000000000000000000000000000111111111111111111111111111111111111000000000000000000 v"
b1111111111000011 p)
b101110 "*
#546
b10010 p)
b11010 "*
#547
b11111111111111111111111111111101010 "*
#548
b11111111111111111111111111110011010 "*
#549
b111111110101010111111111111111111110000000000000000001000000000000000000000000000000000000111111111111111111111111111111111110000000000000000000 v"
b111000 "*
b0 E*
#550
b0 "
10&
b0 y&
b1 ['
b1 E*
#551
b1 "
0j$
b1 y&
b0 {'
b1 i+
1p.
#552
0/&
b11 i+
b1 ~+
#553
b11000110 1&
b10 i+
b11 ~+
b1010101101101101111111110011100000000000110011000000000000110100000000000000110111111111101011011111111100001100000000000100100 #,
0l.
0p.
#554
b11 i+
b10 ~+
1l.
#555
b10 i+
b11 ~+
b10101011011011011111111100111001000000001100110000000000001101000000000000001100111111111010110111111111000011010000000001001000 #,
0l.
#556
b1000110 1&
b11 i+
b10 ~+
1l.
#557
b10 i+
b11 ~+
b1010110110110101111111001110011000000011001100000000000011010000000000000011000111111110101101111111110000110110000000010010000 #,
0l.
#558
b11000110 1&
b11 i+
b10 ~+
1l.
#559
b10 i+
b11 ~+
b10101101101101011111110011100111000000110011000000000000110100000000000000110000111111101011011111111100001101110000000100100000 #,
0l.
#560
b1000110 1&
b11 i+
b10 ~+
1l.
#561
b10 i+
b11 ~+
b1011011011010101111100111001111000001100110000000000001101000000000000001100000111111010110111111111000011011110000001001000000 #,
0l.
#562
b11000110 1&
b11 i+
b10 ~+
1l.
#563
b10 i+
b11 ~+
b10110110110101011111001110011111000011001100000000000011010000000000000011000000111110101101111111110000110111110000010010000000 #,
0l.
#564
b1000110 1&
b11 i+
b10 ~+
1l.
#565
b10 i+
b11 ~+
b1101101101010101110011100111111000110011000000000000110100000000000000110000000111101011011111111100001101111110000100100000000 #,
0l.
#566
b11000110 1&
b11 i+
b10 ~+
1l.
#567
b10 i+
b11 ~+
b11011011010101011100111001111111001100110000000000001101000000000000001100000000111010110111111111000011011111110001001000000000 #,
0l.
#568
b1000110 1&
b11 i+
b10 ~+
1l.
#569
b10 i+
b11 ~+
b10110110101010101001110011111111011001100000000000011010000000000000011000000000110101101111111110000110111111110010010000000000 #,
0l.
#570
b11000110 1&
b11 i+
b10 ~+
1l.
#571
b10 i+
b11 ~+
b1101101010101010011100111111111110011000000000000110100000000000000110000000000101011011111111100001101111111110100100000000000 #,
0l.
#572
b1000110 1&
b11 i+
b10 ~+
1l.
#573
b10 i+
b11 ~+
b11011010101010100111001111111111100110000000000001101000000000000001100000000000010110111111111100011011111111111001000000000000 #,
0l.
#574
b10100100 1&
b11 i+
b10 ~+
1l.
#575
b10 i+
b11 ~+
b10110101010101011110011111111110001100000000000111010000000000000011000000000000101101111111111100110111111111100010000000000000 #,
0l.
#576
b11100000 1&
b11 i+
b10 ~+
1l.
#577
b11110000 1&
b10 i+
b11 ~+
b1101010101010111100111111111101011000000000001110100000000000000110000000000000011011111111111001101111111111000100000000000000 #,
0l.
#578
b11010101 1&
b11 i+
b10 ~+
1l.
#579
b11011101 1&
b10 i+
b11 ~+
b11010101010101111001111111111011110000000000011001000000000000011100000000000000110111111111110111011111111110001000000000000001 #,
0l.
#580
b10011101 1&
b11 i+
b10 ~+
1l.
#581
b10010101 1&
b10 i+
b11 ~+
b10101010101011110011111111110110100000000000110010000000000000111000000000000001101111111111101110111111111100000000000000000011 #,
0l.
#582
b10110011 1&
b11 i+
b10 ~+
1l.
#583
b10101011 1&
b10 i+
b11 ~+
b1010101010111110111111111101100000000000001100100000000000001110000000000000010011111111111011001111111111000010000000000000111 #,
0l.
#584
b1101111 1&
b11 i+
b10 ~+
1l.
#585
b1100111 1&
b100 i+
b11 ~+
b10101010101111101111111111011001000000000011001100000000000011100000000000000101111111111110110111111111110000110000000000001111 #,
0l.
#586
b10101010101111101111111111011001000000000011001100000000000011100000000000000101111111111110110111111111110000110000000000001111 k$
b0 1&
b10101010101111101111111111011001000000000011001100000000000011100000000000000101111111111110110111111111110000110000000000001111 G*
b0 i+
b100 ~+
#587
1/&
b10 E*
b0 ~+
#588
b10 "
1j$
00&
b0 ['
b1 {'
b1010101010111110 p)
1l.
#589
b1111111111011001 p)
#590
b110011 p)
#591
b1110 p)
b11111111111111111110101010110010000 "*
#592
b111111110101010110111111111111111110000000000000000001000000000000000000000000000000000000111111111111111111111111111111111110000000000000000000 v"
b101 p)
b11111111111111111111111111111000110 "*
#593
b111111110101010110111111111111111111000000000000000001000000000000000000000000000000000000111111111111111111111111111111111110000000000000000000 v"
b1111111111101101 p)
b1111010 "*
#594
b1111111111000011 p)
b110000 "*
#595
b1111 p)
b11110 "*
#596
b11111111111111111111111111111101110 "*
#597
b11111111111111111111111111110011010 "*
#598
b110010 "*
b0 E*
#599
b0 "
10&
b0 y&
b1 ['
b1 E*
#600
b1 "
0j$
b1 y&
b0 {'
b1 i+
1p.
#601
0/&
b11 i+
b1 ~+
#602
b11000110 1&
b10 i+
b11 ~+
b1010101011111001111111110110010000000000110011000000000000111000000000000001010111111111101101011111111100001100000000000011110 #,
0l.
0p.
#603
b11 i+
b10 ~+
1l.
#604
b10 i+
b11 ~+
b10101010111110011111111101100101000000001100110000000000001110000000000000010100111111111011010111111111000011010000000000111100 #,
0l.
#605
b1000110 1&
b11 i+
b10 ~+
1l.
#606
b10 i+
b11 ~+
b1010101111100101111111011001011000000011001100000000000011100000000000000101000111111110110101111111110000110110000000001111000 #,
0l.
#607
b11000110 1&
b11 i+
b10 ~+
1l.
#608
b10 i+
b11 ~+
b10101011111001011111110110010111000000110011000000000000111000000000000001010000111111101101011111111100001101110000000011110000 #,
0l.
#609
b1000110 1&
b11 i+
b10 ~+
1l.
#610
b10 i+
b11 ~+
b1010111110010101111101100101111000001100110000000000001110000000000000010100000111111011010111111111000011011110000000111100000 #,
0l.
#611
b11000110 1&
b11 i+
b10 ~+
1l.
#612
b10 i+
b11 ~+
b10101111100101011111011001011111000011001100000000000011100000000000000101000000111110110101111111110000110111110000001111000000 #,
0l.
#613
b1000110 1&
b11 i+
b10 ~+
1l.
#614
b10 i+
b11 ~+
b1011111001010101110110010111111000110011000000000000111000000000000001010000000111101101011111111100001101111110000011110000000 #,
0l.
#615
b11000110 1&
b11 i+
b10 ~+
1l.
#616
b10 i+
b11 ~+
b10111110010101011101100101111111001100110000000000001110000000000000010100000000111011010111111111000011011111110000111100000000 #,
0l.
#617
b11 i+
b10 ~+
1l.
#618
b10 i+
b11 ~+
b1111100101010111011001011111111011001100000000000011100000000000000101000000000110110101111111110000110111111110001111000000000 #,
0l.
#619
b1000110 1&
b11 i+
b10 ~+
1l.
#620
b10 i+
b11 ~+
b11111001010101100110010111111111110011000000000000111000000000000001010000000000101101011111111100001101111111110011110000000000 #,
0l.
#621
b110 1&
b11 i+
b10 ~+
1l.
#622
b10 i+
b11 ~+
b11110010101011001100101111111110100110000000000001110000000000000010100000000000011010111111111100011011111111110111100000000000 #,
0l.
#623
b1100100 1&
b11 i+
b10 ~+
1l.
#624
b10 i+
b11 ~+
b11100101010110001001011111111101001100000000000111100000000000000101000000000000110101111111111100110111111111101111000000000000 #,
0l.
#625
b11000000 1&
b11 i+
b10 ~+
1l.
#626
b11010000 1&
b10 i+
b11 ~+
b11001010101100010010111111111011011000000000001011000000000000001010000000000000101011111111111001101111111111001110000000000000 #,
0l.
#627
b1110101 1&
b11 i+
b10 ~+
1l.
#628
b10 i+
b11 ~+
b10010101011000100101111111110111110000000000010110000000000000010100000000000000010111111111110111011111111110001100000000000001 #,
0l.
#629
b10110101 1&
b11 i+
b10 ~+
1l.
#630
b10101101 1&
b10 i+
b11 ~+
b101010110001011011111111101110100000000000101100000000000000111000000000000000101111111111101110111111111100001000000000000011 #,
0l.
#631
b10001010 1&
b11 i+
b10 ~+
1l.
#632
b10010010 1&
b10 i+
b11 ~+
b1010101100010110111111111011100000000000001011000000000000001100000000000000001011111111111011001111111111000010000000000000110 #,
0l.
#633
b11110011 1&
b11 i+
b10 ~+
1l.
#634
b11100011 1&
b100 i+
b11 ~+
b10101011000101111111111110111001000000000010110100000000000011010000000000000010111111111110110011111111110000110000000000001101 #,
0l.
#635
b10101011000101111111111110111001000000000010110100000000000011010000000000000010111111111110110011111111110000110000000000001101 k$
b0 1&
b10101011000101111111111110111001000000000010110100000000000011010000000000000010111111111110110011111111110000110000000000001101 G*
b0 i+
b100 ~+
#636
1/&
b10 E*
b0 ~+
#637
b10 "
1j$
00&
b0 ['
b1 {'
b1010101100010111 p)
1l.
#638
b1111111110111001 p)
#639
b101101 p)
#640
b1101 p)
b11111111111111111110101011001000010 "*
#641
b111111110101011001111111111111111111000000000000000001000000000000000000000000000000000000111111111111111111111111111111111110000000000000000000 v"
b10 p)
b11111111111111111111111111110000110 "*
#642
b111111110101011001111111111111111110000000000000000001000000000000000000000000000000000000111111111111111111111111111111111110000000000000000000 v"
b1111111111101100 p)
b1101110 "*
#643
b1111111111000011 p)
b101110 "*
#644
b1101 p)
b11000 "*
#645
b11111111111111111111111111111101100 "*
#646
b11111111111111111111111111110011010 "*
#647
b101110 "*
b0 E*
#648
b0 "
10&
b0 y&
b1 ['
b1 E*
#649
b1 "
0j$
b1 y&
b0 {'
b1 i+
1p.
#650
0/&
b11 i+
b1 ~+
#651
b11000110 1&
b10 i+
b11 ~+
b1010110001011101111111101110010000000000101101000000000000110100000000000000100111111111101100011111111100001100000000000011010 #,
0l.
0p.
#652
b11 i+
b10 ~+
1l.
#653
b10 i+
b11 ~+
b10101100010111011111111011100101000000001011010000000000001101000000000000001000111111111011000111111111000011010000000000110100 #,
0l.
#654
b1000110 1&
b11 i+
b10 ~+
1l.
#655
b10 i+
b11 ~+
b1011000101110101111110111001011000000010110100000000000011010000000000000010000111111110110001111111110000110110000000001101000 #,
0l.
#656
b11000110 1&
b11 i+
b10 ~+
1l.
#657
b10 i+
b11 ~+
b10110001011101011111101110010111000000101101000000000000110100000000000000100000111111101100011111111100001101110000000011010000 #,
0l.
#658
b1000110 1&
b11 i+
b10 ~+
1l.
#659
b10 i+
b11 ~+
b1100010111010101111011100101111000001011010000000000001101000000000000001000000111111011000111111111000011011110000000110100000 #,
0l.
#660
b11000110 1&
b11 i+
b10 ~+
1l.
#661
b10 i+
b11 ~+
b11000101110101011110111001011111000010110100000000000011010000000000000010000000111110110001111111110000110111110000001101000000 #,
0l.
#662
b11 i+
b10 ~+
1l.
#663
b10 i+
b11 ~+
b10001011101010111101110010111111000101101000000000000110100000000000000100000000111101100011111111100001101111110000011010000000 #,
0l.
#664
b1000110 1&
b11 i+
b10 ~+
1l.
#665
b10 i+
b11 ~+
b10111010101101011100101111111001011010000000000001101000000000000001000000000111011000111111111000011011111110000110100000000 #,
0l.
#666
b11000110 1&
b11 i+
b10 ~+
1l.
#667
b10 i+
b11 ~+
b101110101011010111001011111111010110100000000000011010000000000000010000000000110110001111111110000110111111110001101000000000 #,
0l.
#668
b11 i+
b10 ~+
1l.
#669
b10 i+
b11 ~+
b1011101010110111110010111111111101101000000000000110100000000000000100000000000101100011111111100001101111111110011010000000000 #,
0l.
#670
b11 i+
b10 ~+
1l.
#671
b10 i+
b11 ~+
b10111010101101111100101111111111011010000000000001101000000000000001000000000000011000111111111100011011111111110110100000000000 #,
0l.
#672
b100100 1&
b11 i+
b10 ~+
1l.
#673
b10 i+
b11 ~+
b1110101011011101001011111111110110100000000000111010000000000000010000000000000110001111111111100110111111111101101000000000000 #,
0l.
#674
b1100000 1&
b11 i+
b10 ~+
1l.
#675
b1110000 1&
b10 i+
b11 ~+
b11101010110111000010111111111101101000000000001110100000000000000100000000000000100011111111111001101111111111001010000000000000 #,
0l.
#676
b10101 1&
b11 i+
b10 ~+
1l.
#677
b11101 1&
b10 i+
b11 ~+
b11010101101110000101111111111010010000000000011001000000000000011000000000000000000111111111110111011111111110000100000000000001 #,
0l.
#678
b10011101 1&
b11 i+
b10 ~+
1l.
#679
b10000101 1&
b10 i+
b11 ~+
b10101011011100011011111111110100100000000000110010000000000000110000000000000001001111111111101110111111111100001000000000000011 #,
0l.
#680
b1100110 1&
b11 i+
b10 ~+
1l.
#681
b1110110 1&
b10 i+
b11 ~+
b1010110111000100111111111101001000000000001100100000000000001100000000000000010011111111111011101111111111000010000000000000110 #,
0l.
#682
b11010111 1&
b11 i+
b10 ~+
1l.
#683
b11000111 1&
b100 i+
b11 ~+
b10101101110001011111111111010011000000000011001000000000000011010000000000000100111111111110111111111111110000110000000000001101 #,
0l.
#684
b10101101110001011111111111010011000000000011001000000000000011010000000000000100111111111110111111111111110000110000000000001101 k$
b0 1&
b10101101110001011111111111010011000000000011001000000000000011010000000000000100111111111110111111111111110000110000000000001101 G*
b0 i+
b100 ~+
#685
1/&
b10 E*
b0 ~+
#686
b10 "
1j$
00&
b0 ['
b1 {'
b1010110111000101 p)
1l.
#687
b1111111111010011 p)
#688
b110010 p)
#689
b1101 p)
b11111111111111111110101101110011110 "*
#690
b111111110101101110111111111111111110000000000000000001000000000000000000000000000000000000111111111111111111111111111111111110000000000000000000 v"
b100 p)
b11111111111111111111111111110111010 "*
#691
b1111111111101111 p)
b1111000 "*
#692
b1111111111000011 p)
b101110 "*
#693
b1101 p)
b11100 "*
#694
b11111111111111111111111111111110010 "*
#695
b11111111111111111111111111110011010 "*
#696
b101110 "*
b0 E*
#697
b0 "
10&
b0 y&
b1 ['
b1 E*
#698
b1 "
0j$
b1 y&
b0 {'
b1 i+
1p.
#699
0/&
b11 i+
b1 ~+
#700
b11000110 1&
b10 i+
b11 ~+
b1011011100010101111111110100110000000000110010000000000000110100000000000001000111111111101111011111111100001100000000000011010 #,
0l.
0p.
#701
b11 i+
b10 ~+
1l.
#702
b10 i+
b11 ~+
b10110111000101011111111101001101000000001100100000000000001101000000000000010000111111111011110111111111000011010000000000110100 #,
0l.
#703
b1000110 1&
b11 i+
b10 ~+
1l.
#704
b10 i+
b11 ~+
b1101110001010101111111010011011000000011001000000000000011010000000000000100000111111110111101111111110000110110000000001101000 #,
0l.
#705
b11000110 1&
b11 i+
b10 ~+
1l.
#706
b10 i+
b11 ~+
b11011100010101011111110100110111000000110010000000000000110100000000000001000000111111101111011111111100001101110000000011010000 #,
0l.
#707
b1000110 1&
b11 i+
b10 ~+
1l.
#708
b10 i+
b11 ~+
b10111000101010101111101001101111000001100100000000000001101000000000000010000000111111011110111111111000011011110000000110100000 #,
0l.
#709
b11000110 1&
b11 i+
b10 ~+
1l.
#710
b10 i+
b11 ~+
b1110001010101011111010011011111000011001000000000000011010000000000000100000000111110111101111111110000110111110000001101000000 #,
0l.
#711
b11 i+
b10 ~+
1l.
#712
b10 i+
b11 ~+
b11100010101010111110100110111111000110010000000000000110100000000000001000000000111101111011111111100001101111110000011010000000 #,
0l.
#713
b1000110 1&
b11 i+
b10 ~+
1l.
#714
b10 i+
b11 ~+
b11000101010101101101001101111111001100100000000000001101000000000000010000000000111011110111111111000011011111110000110100000000 #,
0l.
#715
b11 i+
b10 ~+
1l.
#716
b10 i+
b11 ~+
b10001010101011001010011011111111011001000000000000011010000000000000100000000000110111101111111110000110111111110001101000000000 #,
0l.
#717
b11 i+
b10 ~+
1l.
#718
b10 i+
b11 ~+
b10101010110000100110111111111110010000000000000110100000000000001000000000000101111011111111100001101111111110011010000000000 #,
0l.
#719
b11000110 1&
b11 i+
b10 ~+
1l.
#720
b10 i+
b11 ~+
b101010101100011001101111111111100100000000000001101000000000000010000000000000011110111111111100011011111111110110100000000000 #,
0l.
#721
b10100100 1&
b11 i+
b10 ~+
1l.
#722
b10 i+
b11 ~+
b1010101011000110011011111111110001000000000000111010000000000000100000000000000111101111111111100110111111111101101000000000000 #,
0l.
#723
b11100000 1&
b11 i+
b10 ~+
1l.
#724
b11110000 1&
b10 i+
b11 ~+
b10101010110001110110111111111101010000000000001110100000000000001000000000000000111011111111111001101111111111001010000000000000 #,
0l.
#725
b10101 1&
b11 i+
b10 ~+
1l.
#726
b101 1&
b10 i+
b11 ~+
b1010101100011101101111111111010100000000000011001000000000000010000000000000000110111111111110111011111111110000100000000000001 #,
0l.
#727
b1100101 1&
b11 i+
b10 ~+
1l.
#728
b1111101 1&
b10 i+
b11 ~+
b10101011000111001011111111110101000000000000110110000000000000100000000000000000101111111111101110111111111100001000000000000011 #,
0l.
#729
b10011100 1&
b11 i+
b10 ~+
1l.
#730
b10010100 1&
b10 i+
b11 ~+
b1010110001110010111111111101010000000000001101000000000000001010000000000000001011111111111011101111111111000000000000000000110 #,
0l.
#731
b10010011 1&
b11 i+
b10 ~+
1l.
#732
b10000011 1&
b100 i+
b11 ~+
b10101100011100111111111111010100000000000011010000000000000010110000000000000010111111111110111011111111110000010000000000001101 #,
0l.
#733
b10101100011100111111111111010100000000000011010000000000000010110000000000000010111111111110111011111111110000010000000000001101 k$
b0 1&
b10101100011100111111111111010100000000000011010000000000000010110000000000000010111111111110111011111111110000010000000000001101 G*
b0 i+
b100 ~+
#734
1/&
b10 E*
b0 ~+
#735
b10 "
1j$
00&
b0 ['
b1 {'
b1010110001110011 p)
1l.
#736
b1111111111010100 p)
#737
b110100 p)
#738
b1011 p)
b11111111111111111110101100011111010 "*
#739
b111111110101100011111111111111111110000000000000000001000000000000000000000000000000000000111111111111111111111111111111111110000000000000000000 v"
b10 p)
b11111111111111111111111111110111100 "*
#740
b1111111111101110 p)
b1111100 "*
#741
b1111111111000001 p)
b101010 "*
#742
b1101 p)
b11000 "*
#743
b11111111111111111111111111111110000 "*
#744
b11111111111111111111111111110010110 "*
#745
b101110 "*
b0 E*
#746
b0 "
10&
b0 y&
b1 ['
b1 E*
#747
b1 "
0j$
b1 y&
b0 {'
b1 i+
1p.
#748
0/&
b11 i+
b1 ~+
#749
b11000110 1&
b10 i+
b11 ~+
b1011000111001101111111110101000000000000110100000000000000101100000000000000100111111111101110011111111100000100000000000011010 #,
0l.
0p.
#750
b11 i+
b10 ~+
1l.
#751
b10 i+
b11 ~+
b10110001110011011111111101010001000000001101000000000000001011000000000000001000111111111011100111111111000001010000000000110100 #,
0l.
#752
b1000110 1&
b11 i+
b10 ~+
1l.
#753
b10 i+
b11 ~+
b1100011100110101111111010100011000000011010000000000000010110000000000000010000111111110111001111111110000010110000000001101000 #,
0l.
#754
b11000110 1&
b11 i+
b10 ~+
1l.
#755
b10 i+
b11 ~+
b11000111001101011111110101000111000000110100000000000000101100000000000000100000111111101110011111111100000101110000000011010000 #,
0l.
#756
b1000110 1&
b11 i+
b10 ~+
1l.
#757
b10 i+
b11 ~+
b10001110011010101111101010001111000001101000000000000001011000000000000001000000111111011100111111111000001011110000000110100000 #,
0l.
#758
b11000110 1&
b11 i+
b10 ~+
1l.
#759
b10 i+
b11 ~+
b11100110101011111010100011111000011010000000000000010110000000000000010000000111110111001111111110000010111110000001101000000 #,
0l.
#760
b11 i+
b10 ~+
1l.
#761
b10 i+
b11 ~+
b111001101010111110101000111111000110100000000000000101100000000000000100000000111101110011111111100000101111110000011010000000 #,
0l.
#762
b1000110 1&
b11 i+
b10 ~+
1l.
#763
b10 i+
b11 ~+
b1110011010101101101010001111111001101000000000000001011000000000000001000000000111011100111111111000001011111110000110100000000 #,
0l.
#764
b11000110 1&
b11 i+
b10 ~+
1l.
#765
b10 i+
b11 ~+
b11100110101011011010100011111111011010000000000000010110000000000000010000000000110111001111111110000010111111110001101000000000 #,
0l.
