docs/source/guide/rpu_software/interrupts/iladata.vcd
$date
        2026-Apr-02 15:34:56
$end
$version
        Vivado v2022.2 (64-bit)
$end
$timescale
        1ps
$end
$scope module dut $end
$var reg 1 " zusys_i/uz_system/Interrupt/system_ila_0/U0/probe0_1 $end
$var reg 1 # zusys_i/uz_system/Interrupt/system_ila_0/U0/probe1_1 $end
$var reg 1 $ zusys_i/uz_system/Interrupt/system_ila_0/U0/probe2_1 $end
$var reg 1 % zusys_i/uz_system/Interrupt/system_ila_0/U0/probe3_1 $end
$var reg 1 & zusys_i/uz_system/Interrupt/system_ila_0/U0/probe4_1 $end
$var reg 1 ' zusys_i/uz_system/Interrupt/system_ila_0/U0/probe5_1 $end
$var reg 1 ( zusys_i/uz_system/Interrupt/system_ila_0/U0/probe6_1 $end
$var reg 4 ) zusys_i/uz_system/Interrupt/system_ila_0/U0/probe7_1 [3:0] $end
$var reg 1 - zusys_i/uz_system/Interrupt/system_ila_0/U0/probe8_1 $end
$var reg 10 . zusys_i/uz_system/Interrupt/system_ila_0/U0/probe9_1 [9:0] $end
$var reg 1 8 zusys_i/uz_system/Interrupt/system_ila_0/U0/probe10_1 $end
$var reg 1 9 zusys_i/uz_system/Interrupt/system_ila_0/U0/probe11_1 $end
$var reg 8 : zusys_i/uz_system/Interrupt/system_ila_0/U0/probe12_1 [7:0] $end
$var reg 1 B _TRIGGER $end
$var reg 1 C _WINDOW $end
$var reg 1 D _GAP $end
$upscope $end
$enddefinitions $end
#0
$dumpvars
0"
0#
0$
0%
0&
0'
0(
b0 )
0-
b1 .
08
19
b0 :
0B
1C
0D
$end
#3192
1"
1#
1(
#3193
0"
0#
0(
1-
18
#3194
0-
08
#3196
b11 :
#3197
b0 :
#3284
09
#3324
19
#3328
b1000000 :
#3329
b0 :
#3786
1%
1'
#3787
0%
0'
#3790
b101000 :
#3791
b0 :
#8192
1"
1$
1(
1B
#8193
0"
0$
0(
1-
18
#8194
0-
08
#8196
b101 :
#8197
b0 :
#8284
09
#8324
19
#8328
b1000000 :
#8329
b0 :
#8786
1%
1&
#8787
0%
0&
#8790
b11000 :
#8791
b0 :
#13192
1"
1#
1(
#13193
0"
0#
0(
1-
18
#13194
0-
08
#13196
b11 :
#13197
b0 :
#13284
09
#13324
19
#13328
b1000000 :
#13329
b0 :
#13786
1%
1'
#13787
0%
0'
#13790
b101000 :
#13791
b0 :
